{
	"ADJECTIVESTOP100" :
	[
	"things can be good",
	"things can be New",
	"things can be Old",
	"things can be great",
	"things can be high",
	"things can be small",
	"things can be large",
	"things can be long",
	"things can be Young",
	"things can be right",
	"things can be early",
	"things can be big",
	"things can be late",
	"things can be full",
	"things can be FAR",
	"things can be Low",
	"things can be bad",
	"things can be sure",
	"things can be clear",
	"things can be likely",
	"things can be real",
	"things can be Black",
	"things can be White",
	"things can be free",
	"things can be easy",
	"things can be short",
	"things can be strong",
	"things can be true",
	"things can be hard",
	"things can be poor",
	"things can be wide",
	"things can be simple",
	"things can be close",
	"things can be fine",
	"things can be wrong",
	"things can be French",
	"things can be Nice",
	"things can be happy",
	"things can be Red",
	"things can be sorry",
	"things can be dead",
	"things can be heavy",
	"things can be cold",
	"things can be ready",
	"things can be Green",
	"things can be deep",
	"things can be left",
	"things can be complete",
	"things can be hot",
	"things can be fair",
	"things can be huge",
	"things can be rich",
	"things can be safe",
	"things can be chief",
	"things can be Light",
	"things can be warm",
	"things can be fresh",
	"things can be cheap",
	"things can be united",
	"things can be strange",
	"things can be soft",
	"things can be quiet",
	"things can be quick",
	"things can be broad",
	"things can be very",
	"things can be lovely",
	"things can be joint",
	"things can be bright",
	"things can be average",
	"things can be INC",
	"things can be unlikely",
	"things can be dry",
	"things can be thin",
	"things can be slow",
	"things can be tiny",
	"things can be wild",
	"things can be empty",
	"things can be alone",
	"things can be narrow",
	"things can be bloody",
	"things can be busy",
	"things can be tall",
	"things can be clean",
	"things can be thick",
	"things can be fast",
	"things can be rare",
	"things can be grand",
	"things can be brief",
	"things can be Grey",
	"things can be funny",
	"things can be severe",
	"things can be vast",
	"things can be ill",
	"things can be weak",
	"things can be Brown",
	"things can be sick",
	"things can be near",
	"things can be angry",
	"things can be well",
	"things can be guilty"
],
"ADJECTIVESTOP1000" : 
[
"things can be lucky",
"things can be tough",
"things can be glad",
"things can be yellow",
"things can be net",
"things can be dear",
"things can be healthy",
"things can be slight",
"things can be friendly",
"things can be flat",
"things can be keen",
"things can be pale",
"things can be wet",
"things can be firm",
"things can be sad",
"things can be pure",
"things can be Sweet",
"things can be rough",
"things can be absolute",
"things can be mere",
"things can be Spanish",
"things can be cool",
"things can be fit",
"things can be extreme",
"things can be proud",
"things can be mad",
"things can be straight",
"things can be pink",
"things can be smooth",
"things can be remote",
"things can be pretty",
"things can be holy",
"things can be honest",
"things can be silly",
"things can be plain",
"things can be still",
"things can be round",
"things can be fat",
"things can be tight",
"things can be dirty",
"things can be pleasant",
"things can be welcome",
"things can be deaf",
"things can be mean",
"things can be blind",
"things can be steady",
"things can be raw",
"things can be clever",
"things can be Wise",
"things can be strict",
"things can be loud",
"things can be gross",
"things can be bare",
"things can be modest",
"things can be acute",
"things can be curious",
"things can be sole",
"things can be urgent",
"things can be sheer",
"things can be nasty",
"things can be unhappy",
"things can be unfair",
"things can be faint",
"things can be hungry",
"things can be just",
"things can be spare",
"things can be neat",
"things can be crazy",
"things can be brave",
"things can be damp",
"things can be secure",
"things can be steep",
"things can be dull",
"things can be lonely",
"things can be mild",
"things can be casual",
"things can be harsh",
"things can be fierce",
"things can be handsome",
"things can be mature",
"things can be gay",
"things can be boring",
"things can be smart",
"things can be wealthy",
"things can be lively",
"things can be stiff",
"things can be drunk",
"things can be kind",
"things can be blank",
"things can be mid",
"things can be profound",
"things can be shallow",
"things can be bold",
"things can be crude",
"things can be cruel",
"things can be rear",
"things can be compact",
"things can be ugly",
"things can be calm",
"things can be slim",
"things can be Divine",
"things can be worthy",
"things can be unpleasant",
"things can be sound",
"things can be costly",
"things can be lengthy",
"things can be polite",
"things can be fond",
"things can be OK",
"things can be purple",
"things can be shy",
"things can be grim",
"things can be noisy",
"things can be grave",
"things can be mighty",
"things can be sunny",
"things can be rude",
"things can be deadly",
"things can be Handy",
"things can be Swift",
"things can be sticky",
"things can be bleak",
"things can be EST",
"things can be shiny",
"things can be dumb",
"things can be sore",
"things can be ample",
"things can be dusty",
"things can be petty",
"things can be sandy",
"things can be overnight",
"things can be minute",
"things can be tidy",
"things can be lazy",
"things can be wary",
"things can be obscure",
"things can be hollow",
"things can be sexy",
"things can be icy",
"things can be scarce",
"things can be glossy",
"things can be naughty",
"things can be lean",
"things can be risky",
"things can be robust",
"things can be gloomy",
"things can be fancy",
"things can be weary",
"things can be dim",
"things can be tricky",
"things can be foul",
"things can be filthy",
"things can be cosy",
"things can be bald",
"things can be coarse",
"things can be daft",
"things can be merry",
"things can be frail",
"things can be ripe",
"things can be sour",
"things can be Frank",
"things can be moist",
"things can be muddy",
"things can be corrupt",
"things can be rocky",
"things can be speedy",
"things can be apt",
"things can be discreet",
"things can be sincere",
"things can be plump",
"things can be crisp",
"things can be fiery",
"things can be sturdy",
"things can be fatty",
"things can be dire",
"things can be jolly",
"things can be greedy",
"things can be bland",
"things can be blunt",
"things can be Split",
"things can be prudent",
"things can be clumsy",
"things can be shrewd",
"things can be unlucky",
"things can be shaky",
"things can be floppy",
"things can be brisk",
"things can be blond",
"things can be stormy",
"things can be creamy",
"things can be stale",
"things can be kindly",
"things can be cunning",
"things can be curly",
"things can be stately",
"things can be stout",
"things can be wry",
"things can be windy",
"things can be void",
"things can be witty",
"things can be vain",
"things can be untidy",
"things can be messy",
"things can be bulky",
"things can be lush",
"things can be cheeky",
"things can be taut",
"things can be posh",
"things can be chilly",
"things can be prompt",
"things can be perverse",
"things can be negligent",
"things can be sparse",
"things can be dizzy",
"things can be shabby",
"things can be greasy",
"things can be sleepy",
"things can be rusty",
"things can be Hardy",
"things can be hairy",
"things can be gold",
"things can be tasty",
"things can be ghastly",
"things can be shadowy",
"things can be thirsty",
"things can be scant",
"things can be sane",
"things can be patchy",
"things can be sleek",
"things can be grubby",
"things can be unkind",
"things can be flash",
"things can be tame",
"things can be lowly",
"things can be trendy",
"things can be stony",
"things can be flimsy",
"things can be skinny",
"things can be ghostly",
"things can be baggy",
"things can be shady",
"things can be woolly",
"things can be shrill",
"things can be murky",
"things can be nude",
"things can be numb",
"things can be oily",
"things can be airy",
"things can be silky",
"things can be grassy",
"things can be misty",
"things can be scruffy",
"things can be vile",
"things can be needy",
"things can be homely",
"things can be cute",
"things can be rosy",
"things can be drab",
"things can be heady",
"things can be dreary",
"things can be roast",
"things can be smelly",
"things can be Down",
"things can be sublime",
"things can be hefty",
"things can be lame",
"things can be Darling",
"things can be cloudy",
"things can be staunch",
"things can be queer",
"things can be dodgy",
"things can be smug",
"things can be lofty",
"things can be hasty",
"things can be rainy",
"things can be weighty",
"things can be snug",
"things can be soggy",
"things can be sickly",
"things can be worldly",
"things can be spiky",
"things can be spicy",
"things can be trim",
"things can be steely",
"things can be scary",
"things can be sloppy",
"things can be prickly",
"things can be supple",
"things can be UV",
"things can be slick",
"things can be uncanny",
"things can be slimy",
"things can be salty",
"things can be stuffy",
"things can be unruly",
"things can be unsold",
"things can be smoky",
"things can be snowy",
"things can be quaint",
"things can be stocky",
"things can be snap",
"things can be ruddy",
"things can be hearty",
"things can be dour",
"things can be cheery",
"things can be grimy",
"things can be limp",
"things can be hilly",
"things can be Cross",
"things can be bust",
"things can be drowsy",
"things can be burly",
"things can be lumpy",
"things can be bumpy",
"things can be crafty",
"things can be leafy",
"things can be dingy",
"things can be hoarse",
"things can be hazy",
"things can be husky",
"things can be cuddly",
"things can be crap",
"things can be juicy",
"things can be gruesome",
"things can be dainty",
"things can be classy",
"things can be chunky",
"things can be gritty",
"things can be glassy",
"things can be slack",
"things can be fussy",
"things can be fruity",
"things can be meek",
"things can be fleshy",
"things can be mellow",
"things can be frosty",
"things can be foggy",
"things can be arty",
"things can be fluffy",
"things can be arch",
"things can be lousy",
"things can be brash",
"things can be Moody",
"things can be fuzzy",
"things can be gaudy",
"things can be furry",
"things can be gaunt",
"things can be spooky",
"things can be sporty",
"things can be spoilt",
"things can be sprightly",
"things can be springy",
"things can be stealthy",
"things can be crusty",
"things can be frilly",
"things can be Cu",
"things can be sketchy",
"things can be snide",
"things can be staid",
"things can be squeaky",
"things can be starry",
"things can be skimpy",
"things can be flashy",
"things can be dank",
"things can be sneaky",
"things can be fizzy",
"things can be snappy",
"things can be fishy",
"things can be princely",
"things can be weedy",
"things can be edgy",
"things can be dusky",
"things can be sleazy",
"things can be FL",
"things can be dreamy",
"things can be deft",
"things can be dumpy",
"things can be soy",
"things can be dotty",
"things can be Dowdy",
"things can be downtown",
"things can be dozy",
"things can be draughty",
"things can be earthy",
"things can be arcane",
"things can be bonny",
"things can be bossy",
"things can be bouncy",
"things can be brainy",
"things can be breezy",
"things can be bubbly",
"things can be ungainly",
"things can be zany",
"things can be trusty",
"things can be bushy",
"things can be trite",
"things can be canny",
"things can be wacky",
"things can be WAN",
"things can be balmy"
]
}